NYC Airbnb Data Analysis
…
airbnb %>% 
  transmute(number_of_reviews, minimum_nights, reviews_per_month) 

## # A tibble: 34,226 x 3
##    number_of_reviews minimum_nights reviews_per_month
##                <dbl>          <dbl>             <dbl>
##  1                 0              1             NA   
##  2               119              1              1.39
##  3               177             14              2.82
##  4                 3             30              0.03
##  5                22              3              0.27
##  6                98              7              1.75
##  7                32              3              0.91
##  8                 9              3              0.16
##  9                11              1              0.25
## 10               169              3              3.07
## # ... with 34,216 more rows
…
